EESchema Schematic File Version 4
EELAYER 30 0
EELAYER END
$Descr A4 11693 8268
encoding utf-8
Sheet 1 1
Title ""
Date ""
Rev ""
Comp ""
Comment1 ""
Comment2 ""
Comment3 ""
Comment4 ""
$EndDescr
$Comp
L my-misc-modules:FT232RL-RED-MODULE U2
U 1 1 61AE36CE
P 6100 2750
F 0 "U2" H 7000 2900 60  0000 C CNN
F 1 "FT232RL-RED-MODULE" H 7050 3000 60  0000 C CNN
F 2 "myModules:FT232RL-RED-MODULE" V 6525 2750 60  0001 C CNN
F 3 "" V 6525 2750 60  0000 C CNN
	1    6100 2750
	-1   0    0    -1  
$EndComp
$Comp
L power:GND #PWR03
U 1 1 61AE4050
P 5050 3150
F 0 "#PWR03" H 5050 2900 50  0001 C CNN
F 1 "GND" H 5050 3000 50  0000 C CNN
F 2 "" H 5050 3150 50  0001 C CNN
F 3 "" H 5050 3150 50  0001 C CNN
	1    5050 3150
	1    0    0    -1  
$EndComp
$Comp
L power:GND #PWR06
U 1 1 61AE440B
P 5800 1900
F 0 "#PWR06" H 5800 1650 50  0001 C CNN
F 1 "GND" H 5800 1750 50  0000 C CNN
F 2 "" H 5800 1900 50  0001 C CNN
F 3 "" H 5800 1900 50  0001 C CNN
	1    5800 1900
	1    0    0    -1  
$EndComp
$Comp
L esp32-board-rescue:Q_NPN_EBC-esp32-board-rescue Q2
U 1 1 61AF366F
P 7050 2000
F 0 "Q2" H 7250 2050 50  0000 L CNN
F 1 "2N2222" H 7250 1950 50  0000 L CNN
F 2 "TO_SOT_Packages_THT:TO-92_Inline_Wide" H 7250 2100 50  0001 C CNN
F 3 "" H 7050 2000 50  0001 C CNN
	1    7050 2000
	1    0    0    -1  
$EndComp
$Comp
L esp32-board-rescue:Q_NPN_EBC-esp32-board-rescue Q1
U 1 1 61AF36EA
P 7050 2700
F 0 "Q1" H 7250 2750 50  0000 L CNN
F 1 "2N2222" H 7250 2650 50  0000 L CNN
F 2 "TO_SOT_Packages_THT:TO-92_Inline_Wide" H 7250 2800 50  0001 C CNN
F 3 "" H 7050 2700 50  0001 C CNN
	1    7050 2700
	1    0    0    1   
$EndComp
$Comp
L esp32-board-rescue:R-esp32-board-rescue R3
U 1 1 61AF378A
P 6600 2000
F 0 "R3" V 6680 2000 50  0000 C CNN
F 1 "10K" V 6600 2000 50  0000 C CNN
F 2 "Resistors_THT:R_Axial_DIN0207_L6.3mm_D2.5mm_P10.16mm_Horizontal" V 6530 2000 50  0001 C CNN
F 3 "" H 6600 2000 50  0001 C CNN
	1    6600 2000
	0    1    1    0   
$EndComp
$Comp
L esp32-board-rescue:R-esp32-board-rescue R4
U 1 1 61AF389F
P 6600 2700
F 0 "R4" V 6680 2700 50  0000 C CNN
F 1 "10K" V 6600 2700 50  0000 C CNN
F 2 "Resistors_THT:R_Axial_DIN0207_L6.3mm_D2.5mm_P10.16mm_Horizontal" V 6530 2700 50  0001 C CNN
F 3 "" H 6600 2700 50  0001 C CNN
	1    6600 2700
	0    1    1    0   
$EndComp
$Comp
L esp32-board-rescue:Conn_01x07-esp32-board-rescue J2
U 1 1 61AF3B99
P 7750 4200
F 0 "J2" H 7750 4600 50  0000 C CNN
F 1 "ESP32" H 7750 3800 50  0000 C CNN
F 2 "Pin_Headers:Pin_Header_Straight_1x07_Pitch2.54mm" H 7750 4200 50  0001 C CNN
F 3 "" H 7750 4200 50  0001 C CNN
	1    7750 4200
	1    0    0    -1  
$EndComp
$Comp
L esp32-board-rescue:C-esp32-board-rescue C2
U 1 1 61AF3C21
P 7250 4750
F 0 "C2" H 7275 4850 50  0000 L CNN
F 1 "100nF" H 7275 4650 50  0000 L CNN
F 2 "Capacitors_THT:C_Rect_L7.0mm_W2.0mm_P5.00mm" H 7288 4600 50  0001 C CNN
F 3 "" H 7250 4750 50  0001 C CNN
	1    7250 4750
	1    0    0    -1  
$EndComp
$Comp
L power:GND #PWR09
U 1 1 61AF3CEA
P 7250 5000
F 0 "#PWR09" H 7250 4750 50  0001 C CNN
F 1 "GND" H 7250 4850 50  0000 C CNN
F 2 "" H 7250 5000 50  0001 C CNN
F 3 "" H 7250 5000 50  0001 C CNN
	1    7250 5000
	1    0    0    -1  
$EndComp
Text GLabel 6850 4600 3    60   Input ~ 0
GPIO0
Text GLabel 7000 4600 3    60   Input ~ 0
RESET
Text Notes 7900 4500 0    60   ~ 0
VCC\nGND\nANALOG\nRX\nTX\nEN\nIO0
$Comp
L esp32-board-rescue:Conn_01x02-esp32-board-rescue J5
U 1 1 61B0838F
P 7750 3100
F 0 "J5" H 7750 3200 50  0000 C CNN
F 1 "PWR2" V 7850 3050 50  0000 C CNN
F 2 "Pin_Headers:Pin_Header_Straight_1x02_Pitch2.54mm" H 7750 3100 50  0001 C CNN
F 3 "" H 7750 3100 50  0001 C CNN
	1    7750 3100
	1    0    0    -1  
$EndComp
$Comp
L esp32-board-rescue:Conn_01x02-esp32-board-rescue J4
U 1 1 61B0842B
P 7750 2750
F 0 "J4" H 7750 2850 50  0000 C CNN
F 1 "PWR1" V 7850 2700 50  0000 C CNN
F 2 "Pin_Headers:Pin_Header_Straight_1x02_Pitch2.54mm" H 7750 2750 50  0001 C CNN
F 3 "" H 7750 2750 50  0001 C CNN
	1    7750 2750
	1    0    0    -1  
$EndComp
Wire Wire Line
	5650 3050 5650 3150
Wire Wire Line
	5650 3150 7350 3150
Wire Wire Line
	7350 3150 7350 4200
Wire Wire Line
	7350 4200 7550 4200
Wire Wire Line
	7550 4300 7300 4300
Wire Wire Line
	7300 4300 7300 3200
Wire Wire Line
	7300 3200 5250 3200
Wire Wire Line
	5250 3200 5250 3050
Wire Wire Line
	5050 3050 5050 3150
Wire Wire Line
	5650 1950 5650 1800
Wire Wire Line
	5650 1800 5800 1800
Wire Wire Line
	5800 1800 5800 1900
Wire Wire Line
	6750 2700 6850 2700
Wire Wire Line
	6750 2000 6850 2000
Wire Wire Line
	6900 4400 7000 4400
Wire Wire Line
	7150 2400 7150 2500
Wire Wire Line
	7150 1800 6850 1800
Wire Wire Line
	6850 4500 7550 4500
Wire Wire Line
	7150 2200 7150 2300
Wire Wire Line
	7150 2300 6350 2300
Wire Wire Line
	6350 2300 6350 2700
Wire Wire Line
	6350 2700 6450 2700
Wire Wire Line
	6450 2000 6300 2000
Wire Wire Line
	6300 2000 6300 2400
Wire Wire Line
	7150 3000 7150 2900
Wire Wire Line
	6300 3250 5450 3250
Wire Wire Line
	6350 3300 5550 3300
Connection ~ 6350 2700
Wire Wire Line
	7250 4900 7250 5000
Connection ~ 6850 4500
Wire Wire Line
	7250 4600 7250 4400
Connection ~ 7250 4400
Wire Wire Line
	7000 4600 7000 4400
Connection ~ 7000 4400
Wire Wire Line
	7150 3000 6900 3000
Wire Wire Line
	6900 3000 6900 4400
Wire Wire Line
	7150 2400 6300 2400
Connection ~ 6300 2400
Wire Wire Line
	5450 3250 5450 3050
Wire Wire Line
	5550 3300 5550 3050
Wire Wire Line
	7400 2750 7400 3100
Wire Wire Line
	7400 2750 7550 2750
Connection ~ 7400 3900
Wire Wire Line
	7550 3100 7400 3100
Connection ~ 7400 3100
Wire Wire Line
	7550 2850 7450 2850
Wire Wire Line
	7450 2850 7450 3200
Wire Wire Line
	7550 3200 7450 3200
Connection ~ 7450 3200
Wire Wire Line
	6350 2700 6350 3300
Wire Wire Line
	6850 4500 6850 4600
Wire Wire Line
	7250 4400 7550 4400
Wire Wire Line
	7000 4400 7250 4400
Wire Wire Line
	6300 2400 6300 3250
Wire Wire Line
	7450 4000 7550 4000
Wire Wire Line
	7400 3900 7550 3900
Wire Wire Line
	7450 3200 7450 4000
Wire Wire Line
	7400 3100 7400 3900
Wire Wire Line
	5650 3900 5650 4400
Connection ~ 7450 4000
Wire Wire Line
	7150 3800 7150 3900
Text GLabel 7150 3800 1    60   Input ~ 0
VCC
Connection ~ 7150 3900
Wire Wire Line
	7150 3900 7400 3900
$Comp
L esp32-board-rescue:Conn_01x02-esp32-board-rescue J3
U 1 1 61ADF066
P 5900 3600
F 0 "J3" H 5900 3700 50  0000 C CNN
F 1 "AMP" V 6000 3550 50  0000 C CNN
F 2 "Pin_Headers:Pin_Header_Straight_1x02_Pitch2.54mm" H 5900 3600 50  0001 C CNN
F 3 "" H 5900 3600 50  0001 C CNN
	1    5900 3600
	0    -1   -1   0   
$EndComp
Wire Wire Line
	5900 3900 5900 3800
Wire Wire Line
	5650 3900 5900 3900
Wire Wire Line
	6000 3800 6000 3900
$Comp
L esp32-board-rescue:SW_SPDT-esp32-board-rescue SW1
U 1 1 61ADF377
P 5950 4400
F 0 "SW1" H 5950 4570 50  0000 C CNN
F 1 "POWER" H 5950 4200 50  0000 C CNN
F 2 "mySwitches:DIP-SWITCH" H 5950 4400 50  0001 C CNN
F 3 "" H 5950 4400 50  0001 C CNN
	1    5950 4400
	1    0    0    1   
$EndComp
Wire Wire Line
	5650 4400 5750 4400
Wire Wire Line
	6150 4300 6250 4300
Wire Wire Line
	6700 3900 7150 3900
Connection ~ 6700 3900
$Comp
L power:+3.3V #PWR08
U 1 1 61ADEF63
P 6700 3800
F 0 "#PWR08" H 6700 3650 50  0001 C CNN
F 1 "+3.3V" H 6700 3940 50  0000 C CNN
F 2 "" H 6700 3800 50  0001 C CNN
F 3 "" H 6700 3800 50  0001 C CNN
	1    6700 3800
	1    0    0    -1  
$EndComp
Wire Wire Line
	6700 3800 6700 3900
Wire Wire Line
	6250 4300 6250 3900
Wire Wire Line
	6000 3900 6250 3900
Connection ~ 6250 3900
$Comp
L esp32-board-rescue:Conn_01x03-esp32-board-rescue J1
U 1 1 61ADE5B6
P 6350 3600
F 0 "J1" H 6350 3800 50  0000 C CNN
F 1 "REGUL" V 6450 3600 50  0000 C CNN
F 2 "Pin_Headers:Pin_Header_Straight_1x03_Pitch2.54mm" H 6350 3600 50  0001 C CNN
F 3 "" H 6350 3600 50  0001 C CNN
	1    6350 3600
	0    -1   -1   0   
$EndComp
Wire Wire Line
	6250 3900 6250 3800
Wire Wire Line
	6350 4200 6350 4000
$Comp
L power:GND #PWR07
U 1 1 61A78BEB
P 6350 4200
F 0 "#PWR07" H 6350 3950 50  0001 C CNN
F 1 "GND" H 6350 4050 50  0000 C CNN
F 2 "" H 6350 4200 50  0001 C CNN
F 3 "" H 6350 4200 50  0001 C CNN
	1    6350 4200
	1    0    0    -1  
$EndComp
Connection ~ 6350 4000
Wire Wire Line
	6350 4000 7450 4000
Wire Wire Line
	6350 4000 6350 3800
Wire Wire Line
	6450 3800 6450 3900
Wire Wire Line
	6450 3900 6700 3900
$Comp
L esp32-board-rescue:R-esp32-board-rescue R2
U 1 1 61A7A500
P 6250 5050
F 0 "R2" V 6330 5050 50  0000 C CNN
F 1 "1M" V 6250 5050 50  0000 C CNN
F 2 "Resistors_THT:R_Axial_DIN0207_L6.3mm_D2.5mm_P10.16mm_Horizontal" V 6180 5050 50  0001 C CNN
F 3 "" H 6250 5050 50  0001 C CNN
	1    6250 5050
	1    0    0    -1  
$EndComp
Connection ~ 6550 4800
Wire Wire Line
	6250 4800 6250 4900
Wire Wire Line
	6550 4900 6550 4800
Wire Wire Line
	6550 5300 6550 5200
Wire Wire Line
	6250 4400 6250 4300
Wire Wire Line
	6250 4800 6550 4800
Connection ~ 6250 4800
Wire Wire Line
	6250 5200 6250 5300
Wire Wire Line
	6250 4700 6250 4800
$Comp
L power:GND #PWR05
U 1 1 61ADF4AB
P 6550 5300
F 0 "#PWR05" H 6550 5050 50  0001 C CNN
F 1 "GND" H 6550 5150 50  0000 C CNN
F 2 "" H 6550 5300 50  0001 C CNN
F 3 "" H 6550 5300 50  0001 C CNN
	1    6550 5300
	1    0    0    -1  
$EndComp
$Comp
L esp32-board-rescue:C-esp32-board-rescue C1
U 1 1 61ADF46F
P 6550 5050
F 0 "C1" H 6575 5150 50  0000 L CNN
F 1 "10nF" H 6575 4950 50  0000 L CNN
F 2 "Capacitors_THT:C_Rect_L7.0mm_W2.0mm_P5.00mm" H 6588 4900 50  0001 C CNN
F 3 "" H 6550 5050 50  0001 C CNN
	1    6550 5050
	1    0    0    -1  
$EndComp
$Comp
L power:GND #PWR04
U 1 1 61A7A609
P 6250 5300
F 0 "#PWR04" H 6250 5050 50  0001 C CNN
F 1 "GND" H 6250 5150 50  0000 C CNN
F 2 "" H 6250 5300 50  0001 C CNN
F 3 "" H 6250 5300 50  0001 C CNN
	1    6250 5300
	1    0    0    -1  
$EndComp
$Comp
L esp32-board-rescue:R-esp32-board-rescue R1
U 1 1 61A7A551
P 6250 4550
F 0 "R1" V 6330 4550 50  0000 C CNN
F 1 "1M" V 6250 4550 50  0000 C CNN
F 2 "Resistors_THT:R_Axial_DIN0207_L6.3mm_D2.5mm_P10.16mm_Horizontal" V 6180 4550 50  0001 C CNN
F 3 "" H 6250 4550 50  0001 C CNN
	1    6250 4550
	1    0    0    -1  
$EndComp
Connection ~ 6250 4300
Wire Wire Line
	5350 4050 5350 4150
Connection ~ 5350 4050
Wire Wire Line
	4950 4400 4950 4500
Wire Wire Line
	4850 4400 4950 4400
Wire Wire Line
	5350 4550 5350 4450
Wire Wire Line
	5050 4550 5350 4550
Wire Wire Line
	5050 4250 5050 4550
Wire Wire Line
	4850 4250 5050 4250
Wire Wire Line
	5350 3800 5350 4050
Wire Wire Line
	4850 4050 5350 4050
$Comp
L my-power:+VBATT #PWR02
U 1 1 61A7A436
P 5350 3800
F 0 "#PWR02" H 5350 3650 50  0001 C CNN
F 1 "+VBATT" H 5350 3950 50  0000 C CNN
F 2 "" H 5350 3800 50  0000 C CNN
F 3 "" H 5350 3800 50  0000 C CNN
	1    5350 3800
	1    0    0    -1  
$EndComp
$Comp
L power:GND #PWR01
U 1 1 61A78653
P 4950 4500
F 0 "#PWR01" H 4950 4250 50  0001 C CNN
F 1 "GND" H 4950 4350 50  0000 C CNN
F 2 "" H 4950 4500 50  0001 C CNN
F 3 "" H 4950 4500 50  0001 C CNN
	1    4950 4500
	1    0    0    -1  
$EndComp
$Comp
L my-batteries:TP4056-MODULE U1
U 1 1 61A7859E
P 4300 4150
F 0 "U1" H 4200 4050 60  0000 C CNN
F 1 "TP4056-MODULE" H 4150 4150 60  0000 C CNN
F 2 "myModules:TP4056-CHARGER" H 4300 4150 60  0001 C CNN
F 3 "" H 4300 4150 60  0000 C CNN
	1    4300 4150
	1    0    0    -1  
$EndComp
$Comp
L Device:Battery_Cell BT1
U 1 1 61A7838E
P 5350 4350
F 0 "BT1" H 5450 4450 50  0000 L CNN
F 1 "LIPO-102535" H 5100 4100 50  0000 L CNN
F 2 "myBatteries:LIPO-102535" V 5350 4410 50  0001 C CNN
F 3 "" V 5350 4410 50  0001 C CNN
	1    5350 4350
	1    0    0    -1  
$EndComp
Wire Wire Line
	4850 3900 5650 3900
Connection ~ 5650 3900
Wire Wire Line
	7550 4100 6550 4100
Wire Wire Line
	6550 4100 6550 4800
Wire Wire Line
	6850 1800 6850 4500
$EndSCHEMATC
