EESchema Schematic File Version 4
EELAYER 30 0
EELAYER END
$Descr A4 11693 8268
encoding utf-8
Sheet 1 1
Title ""
Date ""
Rev ""
Comp ""
Comment1 ""
Comment2 ""
Comment3 ""
Comment4 ""
$EndDescr
$Comp
L Device:C C2
U 1 1 61EEB235
P 5700 3750
F 0 "C2" H 5750 3850 50  0000 L CNN
F 1 "10µF" H 5750 3650 50  0000 L CNN
F 2 "Capacitors_THT:C_Disc_D4.3mm_W1.9mm_P5.00mm" H 5738 3600 50  0001 C CNN
F 3 "~" H 5700 3750 50  0001 C CNN
	1    5700 3750
	1    0    0    -1  
$EndComp
$Comp
L Device:C C1
U 1 1 61EEBE1C
P 4700 3750
F 0 "C1" H 4750 3850 50  0000 L CNN
F 1 "1µF" H 4750 3650 50  0000 L CNN
F 2 "Capacitors_THT:C_Disc_D4.3mm_W1.9mm_P5.00mm" H 4738 3600 50  0001 C CNN
F 3 "~" H 4700 3750 50  0001 C CNN
	1    4700 3750
	1    0    0    -1  
$EndComp
$Comp
L power:GND #PWR0101
U 1 1 61EF1128
P 4700 4000
F 0 "#PWR0101" H 4700 3750 50  0001 C CNN
F 1 "GND" H 4705 3827 50  0000 C CNN
F 2 "" H 4700 4000 50  0001 C CNN
F 3 "" H 4700 4000 50  0001 C CNN
	1    4700 4000
	1    0    0    -1  
$EndComp
Wire Wire Line
	4700 3900 4700 3950
Wire Wire Line
	4700 3950 4450 3950
Wire Wire Line
	4450 3950 4450 3600
Wire Wire Line
	4450 3600 4300 3600
Connection ~ 4700 3950
Wire Wire Line
	4700 3950 4700 4000
Wire Wire Line
	5600 3500 5700 3500
Wire Wire Line
	5700 3500 5700 3600
Wire Wire Line
	5700 3500 6000 3500
Wire Wire Line
	6250 3500 6250 4250
Wire Wire Line
	6250 4250 4400 4250
Wire Wire Line
	4400 4250 4400 3700
Wire Wire Line
	4400 3700 4300 3700
Connection ~ 5700 3500
$Comp
L power:GND #PWR0102
U 1 1 61EF1D56
P 5300 4000
F 0 "#PWR0102" H 5300 3750 50  0001 C CNN
F 1 "GND" H 5305 3827 50  0000 C CNN
F 2 "" H 5300 4000 50  0001 C CNN
F 3 "" H 5300 4000 50  0001 C CNN
	1    5300 4000
	1    0    0    -1  
$EndComp
$Comp
L my-regulators:RT9080 U1
U 1 1 61EEAAE5
P 5300 3600
F 0 "U1" H 5300 3942 50  0000 C CNN
F 1 "RT9080" H 5300 3851 50  0000 C CNN
F 2 "TO_SOT_Packages_SMD:SOT-23-5_HandSoldering" H 5300 3925 50  0001 C CNN
F 3 "https://www.diodes.com/assets/Datasheets/AP2204.pdf" H 5300 3700 50  0001 C CNN
	1    5300 3600
	1    0    0    -1  
$EndComp
Wire Wire Line
	5300 3900 5300 4000
$Comp
L power:GND #PWR0103
U 1 1 61EF26D2
P 5700 4000
F 0 "#PWR0103" H 5700 3750 50  0001 C CNN
F 1 "GND" H 5705 3827 50  0000 C CNN
F 2 "" H 5700 4000 50  0001 C CNN
F 3 "" H 5700 4000 50  0001 C CNN
	1    5700 4000
	1    0    0    -1  
$EndComp
Wire Wire Line
	5700 3900 5700 4000
Wire Wire Line
	5000 3600 4900 3600
Wire Wire Line
	4900 3600 4900 3500
Wire Wire Line
	4900 3500 5000 3500
$Comp
L Connector_Generic:Conn_01x03 J1
U 1 1 61EECAD7
P 4100 3600
F 0 "J1" H 4018 3275 50  0000 C CNN
F 1 "INOUT" H 4018 3366 50  0000 C CNN
F 2 "Pin_Headers:Pin_Header_Angled_1x03_Pitch2.54mm" H 4100 3600 50  0001 C CNN
F 3 "~" H 4100 3600 50  0001 C CNN
	1    4100 3600
	-1   0    0    1   
$EndComp
$Comp
L Device:C C3
U 1 1 61EF8AE3
P 6000 3750
F 0 "C3" H 6050 3850 50  0000 L CNN
F 1 "10µF" H 6050 3650 50  0000 L CNN
F 2 "Capacitors_THT:C_Disc_D4.3mm_W1.9mm_P5.00mm" H 6038 3600 50  0001 C CNN
F 3 "~" H 6000 3750 50  0001 C CNN
	1    6000 3750
	1    0    0    -1  
$EndComp
Wire Wire Line
	6000 3600 6000 3500
Connection ~ 6000 3500
Wire Wire Line
	6000 3500 6250 3500
$Comp
L power:GND #PWR0104
U 1 1 61EF90A0
P 6000 4000
F 0 "#PWR0104" H 6000 3750 50  0001 C CNN
F 1 "GND" H 6005 3827 50  0000 C CNN
F 2 "" H 6000 4000 50  0001 C CNN
F 3 "" H 6000 4000 50  0001 C CNN
	1    6000 4000
	1    0    0    -1  
$EndComp
Wire Wire Line
	6000 4000 6000 3900
Wire Wire Line
	4900 3500 4700 3500
Wire Wire Line
	4700 3500 4700 3600
Connection ~ 4900 3500
Wire Wire Line
	4700 3500 4300 3500
Connection ~ 4700 3500
$EndSCHEMATC
