(kicad_pcb (version 20171130) (host pcbnew 5.1.5+dfsg1-2build2)

  (general
    (thickness 1.6)
    (drawings 0)
    (tracks 27)
    (zones 0)
    (modules 5)
    (nets 5)
  )

  (page A4 portrait)
  (layers
    (0 F.Cu signal)
    (31 B.Cu signal)
    (32 B.Adhes user)
    (33 F.Adhes user)
    (34 B.Paste user)
    (35 F.Paste user)
    (36 B.SilkS user)
    (37 F.SilkS user)
    (38 B.Mask user)
    (39 F.Mask user)
    (40 Dwgs.User user)
    (41 Cmts.User user)
    (42 Eco1.User user)
    (43 Eco2.User user)
    (44 Edge.Cuts user)
    (45 Margin user)
    (46 B.CrtYd user)
    (47 F.CrtYd user)
    (48 B.Fab user)
    (49 F.Fab user)
  )

  (setup
    (last_trace_width 0.5)
    (trace_clearance 0.2)
    (zone_clearance 0.508)
    (zone_45_only no)
    (trace_min 0.2)
    (via_size 0.8)
    (via_drill 0.4)
    (via_min_size 0.4)
    (via_min_drill 0.3)
    (uvia_size 0.3)
    (uvia_drill 0.1)
    (uvias_allowed no)
    (uvia_min_size 0.2)
    (uvia_min_drill 0.1)
    (edge_width 0.05)
    (segment_width 0.2)
    (pcb_text_width 0.3)
    (pcb_text_size 1.5 1.5)
    (mod_edge_width 0.12)
    (mod_text_size 1 1)
    (mod_text_width 0.15)
    (pad_size 1.524 1.524)
    (pad_drill 0.762)
    (pad_to_mask_clearance 0.051)
    (solder_mask_min_width 0.25)
    (aux_axis_origin 0 0)
    (visible_elements FFFFFF7F)
    (pcbplotparams
      (layerselection 0x010fc_ffffffff)
      (usegerberextensions false)
      (usegerberattributes false)
      (usegerberadvancedattributes false)
      (creategerberjobfile false)
      (excludeedgelayer true)
      (linewidth 0.100000)
      (plotframeref false)
      (viasonmask false)
      (mode 1)
      (useauxorigin false)
      (hpglpennumber 1)
      (hpglpenspeed 20)
      (hpglpendiameter 15.000000)
      (psnegative false)
      (psa4output false)
      (plotreference true)
      (plotvalue true)
      (plotinvisibletext false)
      (padsonsilk false)
      (subtractmaskfromsilk false)
      (outputformat 1)
      (mirror false)
      (drillshape 1)
      (scaleselection 1)
      (outputdirectory ""))
  )

  (net 0 "")
  (net 1 "Net-(C1-Pad1)")
  (net 2 GND)
  (net 3 "Net-(C2-Pad1)")
  (net 4 "Net-(U1-Pad4)")

  (net_class Default "Ceci est la Netclass par défaut."
    (clearance 0.2)
    (trace_width 0.5)
    (via_dia 0.8)
    (via_drill 0.4)
    (uvia_dia 0.3)
    (uvia_drill 0.1)
    (add_net GND)
    (add_net "Net-(C1-Pad1)")
    (add_net "Net-(C2-Pad1)")
    (add_net "Net-(U1-Pad4)")
  )

  (module TO_SOT_Packages_SMD:SOT-23-5_HandSoldering (layer F.Cu) (tedit 58CE4E7E) (tstamp 61EE8D55)
    (at 102.743 104.775)
    (descr "5-pin SOT23 package")
    (tags "SOT-23-5 hand-soldering")
    (path /61EEAAE5)
    (attr smd)
    (fp_text reference U1 (at 1.27 0) (layer F.SilkS)
      (effects (font (size 1 1) (thickness 0.15)))
    )
    (fp_text value RT9080 (at 0 1.905) (layer F.Fab)
      (effects (font (size 1 1) (thickness 0.15)))
    )
    (fp_line (start 2.38 1.8) (end -2.38 1.8) (layer F.CrtYd) (width 0.05))
    (fp_line (start 2.38 1.8) (end 2.38 -1.8) (layer F.CrtYd) (width 0.05))
    (fp_line (start -2.38 -1.8) (end -2.38 1.8) (layer F.CrtYd) (width 0.05))
    (fp_line (start -2.38 -1.8) (end 2.38 -1.8) (layer F.CrtYd) (width 0.05))
    (fp_line (start 0.9 -1.55) (end 0.9 1.55) (layer F.Fab) (width 0.1))
    (fp_line (start 0.9 1.55) (end -0.9 1.55) (layer F.Fab) (width 0.1))
    (fp_line (start -0.9 -0.9) (end -0.9 1.55) (layer F.Fab) (width 0.1))
    (fp_line (start 0.9 -1.55) (end -0.25 -1.55) (layer F.Fab) (width 0.1))
    (fp_line (start -0.9 -0.9) (end -0.25 -1.55) (layer F.Fab) (width 0.1))
    (fp_line (start 0.9 -1.61) (end -1.55 -1.61) (layer F.SilkS) (width 0.12))
    (fp_line (start -0.9 1.61) (end 0.9 1.61) (layer F.SilkS) (width 0.12))
    (fp_text user %R (at 0 0 90) (layer F.Fab)
      (effects (font (size 0.5 0.5) (thickness 0.075)))
    )
    (pad 5 smd rect (at 1.35 -0.95) (size 1.56 0.65) (layers F.Cu F.Paste F.Mask)
      (net 3 "Net-(C2-Pad1)"))
    (pad 4 smd rect (at 1.35 0.95) (size 1.56 0.65) (layers F.Cu F.Paste F.Mask)
      (net 4 "Net-(U1-Pad4)"))
    (pad 3 smd rect (at -1.35 0.95) (size 1.56 0.65) (layers F.Cu F.Paste F.Mask)
      (net 1 "Net-(C1-Pad1)"))
    (pad 2 smd rect (at -1.35 0) (size 1.56 0.65) (layers F.Cu F.Paste F.Mask)
      (net 2 GND))
    (pad 1 smd rect (at -1.35 -0.95) (size 1.56 0.65) (layers F.Cu F.Paste F.Mask)
      (net 1 "Net-(C1-Pad1)"))
    (model ${KISYS3DMOD}/TO_SOT_Packages_SMD.3dshapes\SOT-23-5.wrl
      (at (xyz 0 0 0))
      (scale (xyz 1 1 1))
      (rotate (xyz 0 0 0))
    )
  )

  (module Pin_Headers:Pin_Header_Angled_1x03_Pitch2.54mm (layer F.Cu) (tedit 59650532) (tstamp 61EE8101)
    (at 104.14 109.22 270)
    (descr "Through hole angled pin header, 1x03, 2.54mm pitch, 6mm pin length, single row")
    (tags "Through hole angled pin header THT 1x03 2.54mm single row")
    (path /61EECAD7)
    (fp_text reference J1 (at 2.54 2.54 180) (layer F.SilkS)
      (effects (font (size 1 1) (thickness 0.15)))
    )
    (fp_text value INOUT (at 5.715 2.54 180) (layer F.Fab)
      (effects (font (size 1 1) (thickness 0.15)))
    )
    (fp_line (start 10.55 -1.8) (end -1.8 -1.8) (layer F.CrtYd) (width 0.05))
    (fp_line (start 10.55 6.85) (end 10.55 -1.8) (layer F.CrtYd) (width 0.05))
    (fp_line (start -1.8 6.85) (end 10.55 6.85) (layer F.CrtYd) (width 0.05))
    (fp_line (start -1.8 -1.8) (end -1.8 6.85) (layer F.CrtYd) (width 0.05))
    (fp_line (start -1.27 -1.27) (end 0 -1.27) (layer F.SilkS) (width 0.12))
    (fp_line (start -1.27 0) (end -1.27 -1.27) (layer F.SilkS) (width 0.12))
    (fp_line (start 1.042929 5.46) (end 1.44 5.46) (layer F.SilkS) (width 0.12))
    (fp_line (start 1.042929 4.7) (end 1.44 4.7) (layer F.SilkS) (width 0.12))
    (fp_line (start 10.1 5.46) (end 4.1 5.46) (layer F.SilkS) (width 0.12))
    (fp_line (start 10.1 4.7) (end 10.1 5.46) (layer F.SilkS) (width 0.12))
    (fp_line (start 4.1 4.7) (end 10.1 4.7) (layer F.SilkS) (width 0.12))
    (fp_line (start 1.44 3.81) (end 4.1 3.81) (layer F.SilkS) (width 0.12))
    (fp_line (start 1.042929 2.92) (end 1.44 2.92) (layer F.SilkS) (width 0.12))
    (fp_line (start 1.042929 2.16) (end 1.44 2.16) (layer F.SilkS) (width 0.12))
    (fp_line (start 10.1 2.92) (end 4.1 2.92) (layer F.SilkS) (width 0.12))
    (fp_line (start 10.1 2.16) (end 10.1 2.92) (layer F.SilkS) (width 0.12))
    (fp_line (start 4.1 2.16) (end 10.1 2.16) (layer F.SilkS) (width 0.12))
    (fp_line (start 1.44 1.27) (end 4.1 1.27) (layer F.SilkS) (width 0.12))
    (fp_line (start 1.11 0.38) (end 1.44 0.38) (layer F.SilkS) (width 0.12))
    (fp_line (start 1.11 -0.38) (end 1.44 -0.38) (layer F.SilkS) (width 0.12))
    (fp_line (start 4.1 0.28) (end 10.1 0.28) (layer F.SilkS) (width 0.12))
    (fp_line (start 4.1 0.16) (end 10.1 0.16) (layer F.SilkS) (width 0.12))
    (fp_line (start 4.1 0.04) (end 10.1 0.04) (layer F.SilkS) (width 0.12))
    (fp_line (start 4.1 -0.08) (end 10.1 -0.08) (layer F.SilkS) (width 0.12))
    (fp_line (start 4.1 -0.2) (end 10.1 -0.2) (layer F.SilkS) (width 0.12))
    (fp_line (start 4.1 -0.32) (end 10.1 -0.32) (layer F.SilkS) (width 0.12))
    (fp_line (start 10.1 0.38) (end 4.1 0.38) (layer F.SilkS) (width 0.12))
    (fp_line (start 10.1 -0.38) (end 10.1 0.38) (layer F.SilkS) (width 0.12))
    (fp_line (start 4.1 -0.38) (end 10.1 -0.38) (layer F.SilkS) (width 0.12))
    (fp_line (start 4.1 -1.33) (end 1.44 -1.33) (layer F.SilkS) (width 0.12))
    (fp_line (start 4.1 6.41) (end 4.1 -1.33) (layer F.SilkS) (width 0.12))
    (fp_line (start 1.44 6.41) (end 4.1 6.41) (layer F.SilkS) (width 0.12))
    (fp_line (start 1.44 -1.33) (end 1.44 6.41) (layer F.SilkS) (width 0.12))
    (fp_line (start 4.04 5.4) (end 10.04 5.4) (layer F.Fab) (width 0.1))
    (fp_line (start 10.04 4.76) (end 10.04 5.4) (layer F.Fab) (width 0.1))
    (fp_line (start 4.04 4.76) (end 10.04 4.76) (layer F.Fab) (width 0.1))
    (fp_line (start -0.32 5.4) (end 1.5 5.4) (layer F.Fab) (width 0.1))
    (fp_line (start -0.32 4.76) (end -0.32 5.4) (layer F.Fab) (width 0.1))
    (fp_line (start -0.32 4.76) (end 1.5 4.76) (layer F.Fab) (width 0.1))
    (fp_line (start 4.04 2.86) (end 10.04 2.86) (layer F.Fab) (width 0.1))
    (fp_line (start 10.04 2.22) (end 10.04 2.86) (layer F.Fab) (width 0.1))
    (fp_line (start 4.04 2.22) (end 10.04 2.22) (layer F.Fab) (width 0.1))
    (fp_line (start -0.32 2.86) (end 1.5 2.86) (layer F.Fab) (width 0.1))
    (fp_line (start -0.32 2.22) (end -0.32 2.86) (layer F.Fab) (width 0.1))
    (fp_line (start -0.32 2.22) (end 1.5 2.22) (layer F.Fab) (width 0.1))
    (fp_line (start 4.04 0.32) (end 10.04 0.32) (layer F.Fab) (width 0.1))
    (fp_line (start 10.04 -0.32) (end 10.04 0.32) (layer F.Fab) (width 0.1))
    (fp_line (start 4.04 -0.32) (end 10.04 -0.32) (layer F.Fab) (width 0.1))
    (fp_line (start -0.32 0.32) (end 1.5 0.32) (layer F.Fab) (width 0.1))
    (fp_line (start -0.32 -0.32) (end -0.32 0.32) (layer F.Fab) (width 0.1))
    (fp_line (start -0.32 -0.32) (end 1.5 -0.32) (layer F.Fab) (width 0.1))
    (fp_line (start 1.5 -0.635) (end 2.135 -1.27) (layer F.Fab) (width 0.1))
    (fp_line (start 1.5 6.35) (end 1.5 -0.635) (layer F.Fab) (width 0.1))
    (fp_line (start 4.04 6.35) (end 1.5 6.35) (layer F.Fab) (width 0.1))
    (fp_line (start 4.04 -1.27) (end 4.04 6.35) (layer F.Fab) (width 0.1))
    (fp_line (start 2.135 -1.27) (end 4.04 -1.27) (layer F.Fab) (width 0.1))
    (pad 3 thru_hole oval (at 0 5.08 270) (size 1.7 1.7) (drill 1) (layers *.Cu *.Mask)
      (net 1 "Net-(C1-Pad1)"))
    (pad 2 thru_hole oval (at 0 2.54 270) (size 1.7 1.7) (drill 1) (layers *.Cu *.Mask)
      (net 2 GND))
    (pad 1 thru_hole rect (at 0 0 270) (size 1.7 1.7) (drill 1) (layers *.Cu *.Mask)
      (net 3 "Net-(C2-Pad1)"))
    (model ${KISYS3DMOD}/Pin_Headers.3dshapes/Pin_Header_Angled_1x03_Pitch2.54mm.wrl
      (at (xyz 0 0 0))
      (scale (xyz 1 1 1))
      (rotate (xyz 0 0 0))
    )
  )

  (module Capacitors_THT:C_Disc_D4.3mm_W1.9mm_P5.00mm (layer F.Cu) (tedit 597BC7C2) (tstamp 61EE91E5)
    (at 97.79 106.045 90)
    (descr "C, Disc series, Radial, pin pitch=5.00mm, , diameter*width=4.3*1.9mm^2, Capacitor, http://www.vishay.com/docs/45233/krseries.pdf")
    (tags "C Disc series Radial pin pitch 5.00mm  diameter 4.3mm width 1.9mm Capacitor")
    (path /61EEBE1C)
    (fp_text reference C1 (at 1.905 -1.905 90) (layer F.SilkS)
      (effects (font (size 1 1) (thickness 0.15)))
    )
    (fp_text value 1µF (at 2.54 0 90) (layer F.Fab)
      (effects (font (size 1 1) (thickness 0.15)))
    )
    (fp_line (start 6.05 -1.3) (end -1.05 -1.3) (layer F.CrtYd) (width 0.05))
    (fp_line (start 6.05 1.3) (end 6.05 -1.3) (layer F.CrtYd) (width 0.05))
    (fp_line (start -1.05 1.3) (end 6.05 1.3) (layer F.CrtYd) (width 0.05))
    (fp_line (start -1.05 -1.3) (end -1.05 1.3) (layer F.CrtYd) (width 0.05))
    (fp_line (start 4.71 0.996) (end 4.71 1.01) (layer F.SilkS) (width 0.12))
    (fp_line (start 4.71 -1.01) (end 4.71 -0.996) (layer F.SilkS) (width 0.12))
    (fp_line (start 0.29 0.996) (end 0.29 1.01) (layer F.SilkS) (width 0.12))
    (fp_line (start 0.29 -1.01) (end 0.29 -0.996) (layer F.SilkS) (width 0.12))
    (fp_line (start 0.29 1.01) (end 4.71 1.01) (layer F.SilkS) (width 0.12))
    (fp_line (start 0.29 -1.01) (end 4.71 -1.01) (layer F.SilkS) (width 0.12))
    (fp_line (start 4.65 -0.95) (end 0.35 -0.95) (layer F.Fab) (width 0.1))
    (fp_line (start 4.65 0.95) (end 4.65 -0.95) (layer F.Fab) (width 0.1))
    (fp_line (start 0.35 0.95) (end 4.65 0.95) (layer F.Fab) (width 0.1))
    (fp_line (start 0.35 -0.95) (end 0.35 0.95) (layer F.Fab) (width 0.1))
    (pad 2 thru_hole circle (at 5 0 90) (size 1.6 1.6) (drill 0.8) (layers *.Cu *.Mask)
      (net 2 GND))
    (pad 1 thru_hole circle (at 0 0 90) (size 1.6 1.6) (drill 0.8) (layers *.Cu *.Mask)
      (net 1 "Net-(C1-Pad1)"))
    (model ${KISYS3DMOD}/Capacitors_THT.3dshapes/C_Disc_D4.3mm_W1.9mm_P5.00mm.wrl
      (at (xyz 0 0 0))
      (scale (xyz 1 1 1))
      (rotate (xyz 0 0 0))
    )
  )

  (module Capacitors_THT:C_Disc_D4.3mm_W1.9mm_P5.00mm (layer F.Cu) (tedit 597BC7C2) (tstamp 61EE9106)
    (at 105.41 100.965 180)
    (descr "C, Disc series, Radial, pin pitch=5.00mm, , diameter*width=4.3*1.9mm^2, Capacitor, http://www.vishay.com/docs/45233/krseries.pdf")
    (tags "C Disc series Radial pin pitch 5.00mm  diameter 4.3mm width 1.9mm Capacitor")
    (path /61EEB235)
    (fp_text reference C2 (at -1.905 0) (layer F.SilkS)
      (effects (font (size 1 1) (thickness 0.15)))
    )
    (fp_text value 10µF (at 2.54 0) (layer F.Fab)
      (effects (font (size 1 1) (thickness 0.15)))
    )
    (fp_line (start 6.05 -1.3) (end -1.05 -1.3) (layer F.CrtYd) (width 0.05))
    (fp_line (start 6.05 1.3) (end 6.05 -1.3) (layer F.CrtYd) (width 0.05))
    (fp_line (start -1.05 1.3) (end 6.05 1.3) (layer F.CrtYd) (width 0.05))
    (fp_line (start -1.05 -1.3) (end -1.05 1.3) (layer F.CrtYd) (width 0.05))
    (fp_line (start 4.71 0.996) (end 4.71 1.01) (layer F.SilkS) (width 0.12))
    (fp_line (start 4.71 -1.01) (end 4.71 -0.996) (layer F.SilkS) (width 0.12))
    (fp_line (start 0.29 0.996) (end 0.29 1.01) (layer F.SilkS) (width 0.12))
    (fp_line (start 0.29 -1.01) (end 0.29 -0.996) (layer F.SilkS) (width 0.12))
    (fp_line (start 0.29 1.01) (end 4.71 1.01) (layer F.SilkS) (width 0.12))
    (fp_line (start 0.29 -1.01) (end 4.71 -1.01) (layer F.SilkS) (width 0.12))
    (fp_line (start 4.65 -0.95) (end 0.35 -0.95) (layer F.Fab) (width 0.1))
    (fp_line (start 4.65 0.95) (end 4.65 -0.95) (layer F.Fab) (width 0.1))
    (fp_line (start 0.35 0.95) (end 4.65 0.95) (layer F.Fab) (width 0.1))
    (fp_line (start 0.35 -0.95) (end 0.35 0.95) (layer F.Fab) (width 0.1))
    (pad 2 thru_hole circle (at 5 0 180) (size 1.6 1.6) (drill 0.8) (layers *.Cu *.Mask)
      (net 2 GND))
    (pad 1 thru_hole circle (at 0 0 180) (size 1.6 1.6) (drill 0.8) (layers *.Cu *.Mask)
      (net 3 "Net-(C2-Pad1)"))
    (model ${KISYS3DMOD}/Capacitors_THT.3dshapes/C_Disc_D4.3mm_W1.9mm_P5.00mm.wrl
      (at (xyz 0 0 0))
      (scale (xyz 1 1 1))
      (rotate (xyz 0 0 0))
    )
  )

  (module Capacitors_THT:C_Disc_D4.3mm_W1.9mm_P5.00mm (layer F.Cu) (tedit 597BC7C2) (tstamp 61EE8DE9)
    (at 105.41 97.79 180)
    (descr "C, Disc series, Radial, pin pitch=5.00mm, , diameter*width=4.3*1.9mm^2, Capacitor, http://www.vishay.com/docs/45233/krseries.pdf")
    (tags "C Disc series Radial pin pitch 5.00mm  diameter 4.3mm width 1.9mm Capacitor")
    (path /61EF8AE3)
    (fp_text reference C3 (at -1.905 0) (layer F.SilkS)
      (effects (font (size 1 1) (thickness 0.15)))
    )
    (fp_text value 10µF (at 2.54 0) (layer F.Fab)
      (effects (font (size 1 1) (thickness 0.15)))
    )
    (fp_line (start 6.05 -1.3) (end -1.05 -1.3) (layer F.CrtYd) (width 0.05))
    (fp_line (start 6.05 1.3) (end 6.05 -1.3) (layer F.CrtYd) (width 0.05))
    (fp_line (start -1.05 1.3) (end 6.05 1.3) (layer F.CrtYd) (width 0.05))
    (fp_line (start -1.05 -1.3) (end -1.05 1.3) (layer F.CrtYd) (width 0.05))
    (fp_line (start 4.71 0.996) (end 4.71 1.01) (layer F.SilkS) (width 0.12))
    (fp_line (start 4.71 -1.01) (end 4.71 -0.996) (layer F.SilkS) (width 0.12))
    (fp_line (start 0.29 0.996) (end 0.29 1.01) (layer F.SilkS) (width 0.12))
    (fp_line (start 0.29 -1.01) (end 0.29 -0.996) (layer F.SilkS) (width 0.12))
    (fp_line (start 0.29 1.01) (end 4.71 1.01) (layer F.SilkS) (width 0.12))
    (fp_line (start 0.29 -1.01) (end 4.71 -1.01) (layer F.SilkS) (width 0.12))
    (fp_line (start 4.65 -0.95) (end 0.35 -0.95) (layer F.Fab) (width 0.1))
    (fp_line (start 4.65 0.95) (end 4.65 -0.95) (layer F.Fab) (width 0.1))
    (fp_line (start 0.35 0.95) (end 4.65 0.95) (layer F.Fab) (width 0.1))
    (fp_line (start 0.35 -0.95) (end 0.35 0.95) (layer F.Fab) (width 0.1))
    (pad 2 thru_hole circle (at 5 0 180) (size 1.6 1.6) (drill 0.8) (layers *.Cu *.Mask)
      (net 2 GND))
    (pad 1 thru_hole circle (at 0 0 180) (size 1.6 1.6) (drill 0.8) (layers *.Cu *.Mask)
      (net 3 "Net-(C2-Pad1)"))
    (model ${KISYS3DMOD}/Capacitors_THT.3dshapes/C_Disc_D4.3mm_W1.9mm_P5.00mm.wrl
      (at (xyz 0 0 0))
      (scale (xyz 1 1 1))
      (rotate (xyz 0 0 0))
    )
  )

  (segment (start 97.79 107.95) (end 99.06 109.22) (width 0.5) (layer F.Cu) (net 1))
  (segment (start 97.79 106.045) (end 97.79 107.95) (width 0.5) (layer F.Cu) (net 1))
  (segment (start 98.11 105.725) (end 97.79 106.045) (width 0.5) (layer F.Cu) (net 1))
  (segment (start 100.24 103.825) (end 101.52 103.825) (width 0.5) (layer F.Cu) (net 1))
  (segment (start 99.38 104.685) (end 100.24 103.825) (width 0.5) (layer F.Cu) (net 1))
  (segment (start 99.38 105.725) (end 99.38 104.685) (width 0.5) (layer F.Cu) (net 1))
  (segment (start 101.52 105.725) (end 99.38 105.725) (width 0.5) (layer F.Cu) (net 1))
  (segment (start 99.38 105.725) (end 98.11 105.725) (width 0.5) (layer F.Cu) (net 1))
  (segment (start 100.33 101.045) (end 100.41 100.965) (width 0.5) (layer F.Cu) (net 2))
  (segment (start 97.79 101.045) (end 100.33 101.045) (width 0.5) (layer F.Cu) (net 2))
  (segment (start 101.54137 100.965) (end 102.750001 102.173631) (width 0.5) (layer F.Cu) (net 2))
  (segment (start 100.41 100.965) (end 101.54137 100.965) (width 0.5) (layer F.Cu) (net 2))
  (segment (start 101.6 107.95) (end 101.6 109.22) (width 0.5) (layer F.Cu) (net 2))
  (segment (start 102.750001 106.799999) (end 101.6 107.95) (width 0.5) (layer F.Cu) (net 2))
  (segment (start 101.639999 104.655001) (end 101.52 104.775) (width 0.5) (layer F.Cu) (net 2))
  (segment (start 102.750001 104.655001) (end 101.639999 104.655001) (width 0.5) (layer F.Cu) (net 2))
  (segment (start 102.750001 102.173631) (end 102.750001 104.655001) (width 0.5) (layer F.Cu) (net 2))
  (segment (start 102.750001 104.655001) (end 102.750001 106.799999) (width 0.5) (layer F.Cu) (net 2))
  (segment (start 100.41 100.965) (end 100.41 97.79) (width 0.5) (layer F.Cu) (net 2))
  (segment (start 104.093 102.282) (end 105.41 100.965) (width 0.5) (layer F.Cu) (net 3))
  (segment (start 104.093 103.825) (end 104.093 102.282) (width 0.5) (layer F.Cu) (net 3))
  (segment (start 105.49 109.22) (end 104.14 109.22) (width 0.5) (layer F.Cu) (net 3))
  (segment (start 105.664 109.046) (end 105.49 109.22) (width 0.5) (layer F.Cu) (net 3))
  (segment (start 105.664 104.116) (end 105.664 109.046) (width 0.5) (layer F.Cu) (net 3))
  (segment (start 105.373 103.825) (end 105.664 104.116) (width 0.5) (layer F.Cu) (net 3))
  (segment (start 104.093 103.825) (end 105.373 103.825) (width 0.5) (layer F.Cu) (net 3))
  (segment (start 105.41 100.965) (end 105.41 97.79) (width 0.5) (layer F.Cu) (net 3))

  (zone (net 2) (net_name GND) (layer F.Cu) (tstamp 61EE8CC0) (hatch edge 0.508)
    (connect_pads (clearance 0.508))
    (min_thickness 0.254)
    (fill yes (arc_segments 32) (thermal_gap 0.508) (thermal_bridge_width 0.508))
    (polygon
      (pts
        (xy 107.315 113.03) (xy 95.885 113.03) (xy 95.885 95.25) (xy 107.315 95.25)
      )
    )
    (filled_polygon
      (pts
        (xy 107.188 112.903) (xy 96.012 112.903) (xy 96.012 105.903665) (xy 96.355 105.903665) (xy 96.355 106.186335)
        (xy 96.410147 106.463574) (xy 96.51832 106.724727) (xy 96.675363 106.959759) (xy 96.875241 107.159637) (xy 96.905001 107.179522)
        (xy 96.905001 107.906521) (xy 96.900719 107.95) (xy 96.917805 108.12349) (xy 96.968412 108.290313) (xy 97.05059 108.444059)
        (xy 97.133468 108.545046) (xy 97.133471 108.545049) (xy 97.161184 108.578817) (xy 97.194951 108.606529) (xy 97.589461 109.001039)
        (xy 97.575 109.07374) (xy 97.575 109.36626) (xy 97.632068 109.653158) (xy 97.74401 109.923411) (xy 97.906525 110.166632)
        (xy 98.113368 110.373475) (xy 98.356589 110.53599) (xy 98.626842 110.647932) (xy 98.91374 110.705) (xy 99.20626 110.705)
        (xy 99.493158 110.647932) (xy 99.763411 110.53599) (xy 100.006632 110.373475) (xy 100.213475 110.166632) (xy 100.335195 109.984466)
        (xy 100.404822 110.101355) (xy 100.599731 110.317588) (xy 100.83308 110.491641) (xy 101.095901 110.616825) (xy 101.24311 110.661476)
        (xy 101.473 110.540155) (xy 101.473 109.347) (xy 101.453 109.347) (xy 101.453 109.093) (xy 101.473 109.093)
        (xy 101.473 107.899845) (xy 101.24311 107.778524) (xy 101.095901 107.823175) (xy 100.83308 107.948359) (xy 100.599731 108.122412)
        (xy 100.404822 108.338645) (xy 100.335195 108.455534) (xy 100.213475 108.273368) (xy 100.006632 108.066525) (xy 99.763411 107.90401)
        (xy 99.493158 107.792068) (xy 99.20626 107.735) (xy 98.91374 107.735) (xy 98.841039 107.749461) (xy 98.675 107.583422)
        (xy 98.675 107.179521) (xy 98.704759 107.159637) (xy 98.904637 106.959759) (xy 99.06168 106.724727) (xy 99.109201 106.61)
        (xy 99.336523 106.61) (xy 99.38 106.614282) (xy 99.423476 106.61) (xy 100.313627 106.61) (xy 100.36882 106.639502)
        (xy 100.488518 106.675812) (xy 100.613 106.688072) (xy 102.173 106.688072) (xy 102.297482 106.675812) (xy 102.41718 106.639502)
        (xy 102.527494 106.580537) (xy 102.624185 106.501185) (xy 102.703537 106.404494) (xy 102.743 106.330665) (xy 102.782463 106.404494)
        (xy 102.861815 106.501185) (xy 102.958506 106.580537) (xy 103.06882 106.639502) (xy 103.188518 106.675812) (xy 103.313 106.688072)
        (xy 104.779001 106.688072) (xy 104.779001 107.731928) (xy 103.29 107.731928) (xy 103.165518 107.744188) (xy 103.04582 107.780498)
        (xy 102.935506 107.839463) (xy 102.838815 107.918815) (xy 102.759463 108.015506) (xy 102.700498 108.12582) (xy 102.676034 108.206466)
        (xy 102.600269 108.122412) (xy 102.36692 107.948359) (xy 102.104099 107.823175) (xy 101.95689 107.778524) (xy 101.727 107.899845)
        (xy 101.727 109.093) (xy 101.747 109.093) (xy 101.747 109.347) (xy 101.727 109.347) (xy 101.727 110.540155)
        (xy 101.95689 110.661476) (xy 102.104099 110.616825) (xy 102.36692 110.491641) (xy 102.600269 110.317588) (xy 102.676034 110.233534)
        (xy 102.700498 110.31418) (xy 102.759463 110.424494) (xy 102.838815 110.521185) (xy 102.935506 110.600537) (xy 103.04582 110.659502)
        (xy 103.165518 110.695812) (xy 103.29 110.708072) (xy 104.99 110.708072) (xy 105.114482 110.695812) (xy 105.23418 110.659502)
        (xy 105.344494 110.600537) (xy 105.441185 110.521185) (xy 105.520537 110.424494) (xy 105.579502 110.31418) (xy 105.615812 110.194482)
        (xy 105.625518 110.095935) (xy 105.66349 110.092195) (xy 105.830313 110.041589) (xy 105.984059 109.959411) (xy 106.118817 109.848817)
        (xy 106.146534 109.815044) (xy 106.259044 109.702534) (xy 106.292817 109.674817) (xy 106.403411 109.540059) (xy 106.485589 109.386313)
        (xy 106.536195 109.21949) (xy 106.549 109.089477) (xy 106.549 109.089467) (xy 106.553281 109.046001) (xy 106.549 109.002535)
        (xy 106.549 104.159465) (xy 106.553281 104.115999) (xy 106.549 104.072533) (xy 106.549 104.072523) (xy 106.536195 103.94251)
        (xy 106.485589 103.775687) (xy 106.403411 103.621941) (xy 106.292817 103.487183) (xy 106.259045 103.459467) (xy 106.029534 103.229956)
        (xy 106.001817 103.196183) (xy 105.867059 103.085589) (xy 105.713313 103.003411) (xy 105.54649 102.952805) (xy 105.416477 102.94)
        (xy 105.416469 102.94) (xy 105.373 102.935719) (xy 105.329531 102.94) (xy 105.172373 102.94) (xy 105.11718 102.910498)
        (xy 104.997482 102.874188) (xy 104.978 102.872269) (xy 104.978 102.648578) (xy 105.233561 102.393017) (xy 105.268665 102.4)
        (xy 105.551335 102.4) (xy 105.828574 102.344853) (xy 106.089727 102.23668) (xy 106.324759 102.079637) (xy 106.524637 101.879759)
        (xy 106.68168 101.644727) (xy 106.789853 101.383574) (xy 106.845 101.106335) (xy 106.845 100.823665) (xy 106.789853 100.546426)
        (xy 106.68168 100.285273) (xy 106.524637 100.050241) (xy 106.324759 99.850363) (xy 106.295 99.830479) (xy 106.295 98.924521)
        (xy 106.324759 98.904637) (xy 106.524637 98.704759) (xy 106.68168 98.469727) (xy 106.789853 98.208574) (xy 106.845 97.931335)
        (xy 106.845 97.648665) (xy 106.789853 97.371426) (xy 106.68168 97.110273) (xy 106.524637 96.875241) (xy 106.324759 96.675363)
        (xy 106.089727 96.51832) (xy 105.828574 96.410147) (xy 105.551335 96.355) (xy 105.268665 96.355) (xy 104.991426 96.410147)
        (xy 104.730273 96.51832) (xy 104.495241 96.675363) (xy 104.295363 96.875241) (xy 104.13832 97.110273) (xy 104.030147 97.371426)
        (xy 103.975 97.648665) (xy 103.975 97.931335) (xy 104.030147 98.208574) (xy 104.13832 98.469727) (xy 104.295363 98.704759)
        (xy 104.495241 98.904637) (xy 104.525001 98.924522) (xy 104.525 99.830478) (xy 104.495241 99.850363) (xy 104.295363 100.050241)
        (xy 104.13832 100.285273) (xy 104.030147 100.546426) (xy 103.975 100.823665) (xy 103.975 101.106335) (xy 103.981983 101.141439)
        (xy 103.497951 101.625471) (xy 103.464184 101.653183) (xy 103.436471 101.686951) (xy 103.436468 101.686954) (xy 103.35359 101.787941)
        (xy 103.271412 101.941687) (xy 103.220805 102.10851) (xy 103.203719 102.282) (xy 103.208001 102.325479) (xy 103.208001 102.872269)
        (xy 103.188518 102.874188) (xy 103.06882 102.910498) (xy 102.958506 102.969463) (xy 102.861815 103.048815) (xy 102.782463 103.145506)
        (xy 102.743 103.219335) (xy 102.703537 103.145506) (xy 102.624185 103.048815) (xy 102.527494 102.969463) (xy 102.41718 102.910498)
        (xy 102.297482 102.874188) (xy 102.173 102.861928) (xy 100.613 102.861928) (xy 100.488518 102.874188) (xy 100.36882 102.910498)
        (xy 100.313627 102.94) (xy 100.283469 102.94) (xy 100.24 102.935719) (xy 100.196531 102.94) (xy 100.196523 102.94)
        (xy 100.06651 102.952805) (xy 99.899686 103.003411) (xy 99.745941 103.085589) (xy 99.644953 103.168468) (xy 99.644951 103.16847)
        (xy 99.611183 103.196183) (xy 99.58347 103.229951) (xy 98.784951 104.028471) (xy 98.751184 104.056183) (xy 98.723471 104.089951)
        (xy 98.723468 104.089954) (xy 98.64059 104.190941) (xy 98.558412 104.344687) (xy 98.507805 104.51151) (xy 98.490719 104.685)
        (xy 98.495001 104.728478) (xy 98.495001 104.790207) (xy 98.469727 104.77332) (xy 98.208574 104.665147) (xy 97.931335 104.61)
        (xy 97.648665 104.61) (xy 97.371426 104.665147) (xy 97.110273 104.77332) (xy 96.875241 104.930363) (xy 96.675363 105.130241)
        (xy 96.51832 105.365273) (xy 96.410147 105.626426) (xy 96.355 105.903665) (xy 96.012 105.903665) (xy 96.012 102.037702)
        (xy 96.976903 102.037702) (xy 97.048486 102.281671) (xy 97.303996 102.402571) (xy 97.578184 102.4713) (xy 97.860512 102.485217)
        (xy 98.14013 102.443787) (xy 98.406292 102.348603) (xy 98.531514 102.281671) (xy 98.603097 102.037702) (xy 98.523097 101.957702)
        (xy 99.596903 101.957702) (xy 99.668486 102.201671) (xy 99.923996 102.322571) (xy 100.198184 102.3913) (xy 100.480512 102.405217)
        (xy 100.76013 102.363787) (xy 101.026292 102.268603) (xy 101.151514 102.201671) (xy 101.223097 101.957702) (xy 100.41 101.144605)
        (xy 99.596903 101.957702) (xy 98.523097 101.957702) (xy 97.79 101.224605) (xy 96.976903 102.037702) (xy 96.012 102.037702)
        (xy 96.012 101.115512) (xy 96.349783 101.115512) (xy 96.391213 101.39513) (xy 96.486397 101.661292) (xy 96.553329 101.786514)
        (xy 96.797298 101.858097) (xy 97.610395 101.045) (xy 97.969605 101.045) (xy 98.782702 101.858097) (xy 99.026671 101.786514)
        (xy 99.115615 101.598539) (xy 99.173329 101.706514) (xy 99.417298 101.778097) (xy 100.230395 100.965) (xy 100.589605 100.965)
        (xy 101.402702 101.778097) (xy 101.646671 101.706514) (xy 101.767571 101.451004) (xy 101.8363 101.176816) (xy 101.850217 100.894488)
        (xy 101.808787 100.61487) (xy 101.713603 100.348708) (xy 101.646671 100.223486) (xy 101.402702 100.151903) (xy 100.589605 100.965)
        (xy 100.230395 100.965) (xy 99.417298 100.151903) (xy 99.173329 100.223486) (xy 99.084385 100.411461) (xy 99.026671 100.303486)
        (xy 98.782702 100.231903) (xy 97.969605 101.045) (xy 97.610395 101.045) (xy 96.797298 100.231903) (xy 96.553329 100.303486)
        (xy 96.432429 100.558996) (xy 96.3637 100.833184) (xy 96.349783 101.115512) (xy 96.012 101.115512) (xy 96.012 100.052298)
        (xy 96.976903 100.052298) (xy 97.79 100.865395) (xy 98.603097 100.052298) (xy 98.579625 99.972298) (xy 99.596903 99.972298)
        (xy 100.41 100.785395) (xy 101.223097 99.972298) (xy 101.151514 99.728329) (xy 100.896004 99.607429) (xy 100.621816 99.5387)
        (xy 100.339488 99.524783) (xy 100.05987 99.566213) (xy 99.793708 99.661397) (xy 99.668486 99.728329) (xy 99.596903 99.972298)
        (xy 98.579625 99.972298) (xy 98.531514 99.808329) (xy 98.276004 99.687429) (xy 98.001816 99.6187) (xy 97.719488 99.604783)
        (xy 97.43987 99.646213) (xy 97.173708 99.741397) (xy 97.048486 99.808329) (xy 96.976903 100.052298) (xy 96.012 100.052298)
        (xy 96.012 98.782702) (xy 99.596903 98.782702) (xy 99.668486 99.026671) (xy 99.923996 99.147571) (xy 100.198184 99.2163)
        (xy 100.480512 99.230217) (xy 100.76013 99.188787) (xy 101.026292 99.093603) (xy 101.151514 99.026671) (xy 101.223097 98.782702)
        (xy 100.41 97.969605) (xy 99.596903 98.782702) (xy 96.012 98.782702) (xy 96.012 97.860512) (xy 98.969783 97.860512)
        (xy 99.011213 98.14013) (xy 99.106397 98.406292) (xy 99.173329 98.531514) (xy 99.417298 98.603097) (xy 100.230395 97.79)
        (xy 100.589605 97.79) (xy 101.402702 98.603097) (xy 101.646671 98.531514) (xy 101.767571 98.276004) (xy 101.8363 98.001816)
        (xy 101.850217 97.719488) (xy 101.808787 97.43987) (xy 101.713603 97.173708) (xy 101.646671 97.048486) (xy 101.402702 96.976903)
        (xy 100.589605 97.79) (xy 100.230395 97.79) (xy 99.417298 96.976903) (xy 99.173329 97.048486) (xy 99.052429 97.303996)
        (xy 98.9837 97.578184) (xy 98.969783 97.860512) (xy 96.012 97.860512) (xy 96.012 96.797298) (xy 99.596903 96.797298)
        (xy 100.41 97.610395) (xy 101.223097 96.797298) (xy 101.151514 96.553329) (xy 100.896004 96.432429) (xy 100.621816 96.3637)
        (xy 100.339488 96.349783) (xy 100.05987 96.391213) (xy 99.793708 96.486397) (xy 99.668486 96.553329) (xy 99.596903 96.797298)
        (xy 96.012 96.797298) (xy 96.012 95.377) (xy 107.188 95.377)
      )
    )
    (filled_polygon
      (pts
        (xy 102.861815 104.601185) (xy 102.958506 104.680537) (xy 103.06882 104.739502) (xy 103.185841 104.775) (xy 103.06882 104.810498)
        (xy 102.958506 104.869463) (xy 102.861815 104.948815) (xy 102.787103 105.039853) (xy 102.64925 104.902) (xy 102.567141 104.902)
        (xy 102.527494 104.869463) (xy 102.41718 104.810498) (xy 102.300159 104.775) (xy 102.41718 104.739502) (xy 102.527494 104.680537)
        (xy 102.567141 104.648) (xy 102.64925 104.648) (xy 102.787103 104.510147)
      )
    )
  )
)
